"ts","Prawd.niezbilansowania"
"2017-06-30 01:00",0.32
"2017-06-30 02:00",0.41
"2017-06-30 03:00",0.43
"2017-06-30 04:00",0.48
"2017-06-30 05:00",0.45
"2017-06-30 06:00",0.42
"2017-06-30 07:00",0.62
"2017-06-30 08:00",0.02
"2017-06-30 09:00",0.07
"2017-06-30 10:00",0.04
"2017-06-30 11:00",0.01
"2017-06-30 12:00",0.02
"2017-06-30 13:00",0.01
"2017-06-30 14:00",0.03
"2017-06-30 15:00",0.02
"2017-06-30 16:00",0.06
"2017-06-30 17:00",0.08
"2017-06-30 18:00",0.22
"2017-06-30 19:00",0.3
"2017-06-30 20:00",0.34
"2017-06-30 21:00",0.1
"2017-06-30 22:00",0.09
"2017-06-30 23:00",0.29
"2017-06-30 24:00",0.34
