"Zapotrzebowanie KSE","Saldo wymiany","Generacja wiatrowa","Generacja nJWCD*","DYSP_JWCDc pracujacych","rezerwa","rezerwa/plan [%]","ts"
22,28,13,13,8,85,0.5,"2017-06-30 01:00"
29,33,17,18,11,109,0.7,"2017-06-30 02:00"
66,36,27,29,18,175,1.1,"2017-06-30 03:00"
52,87,45,34,21,238,1.5,"2017-06-30 04:00"
37,30,32,24,15,138,0.9,"2017-06-30 05:00"
36,42,31,23,14,146,0.9,"2017-06-30 06:00"
276,236,101,63,38,714,4,"2017-06-30 07:00"
105,106,81,50,83,424,2.1,"2017-06-30 08:00"
160,90,117,72,289,728,3.5,"2017-06-30 09:00"
82,161,84,63,250,639,3,"2017-06-30 10:00"
72,67,51,54,167,411,1.9,"2017-06-30 11:00"
71,95,40,52,162,420,1.9,"2017-06-30 12:00"
75,142,42,55,171,485,2.2,"2017-06-30 13:00"
143,146,16,57,165,527,2.4,"2017-06-30 14:00"
65,127,14,49,144,399,1.8,"2017-06-30 15:00"
127,151,17,58,170,522,2.4,"2017-06-30 16:00"
269,263,20,70,203,824,3.9,"2017-06-30 17:00"
262,261,20,69,202,814,3.9,"2017-06-30 18:00"
273,274,67,73,212,898,4.4,"2017-06-30 19:00"
286,289,59,77,223,934,4.5,"2017-06-30 20:00"
146,239,49,63,253,749,3.6,"2017-06-30 21:00"
17,108,22,27,46,219,1.1,"2017-06-30 22:00"
20,65,16,16,11,127,0.7,"2017-06-30 23:00"
5,39,10,10,6,71,0.4,"2017-06-30 24:00"
