"Zapotrzebowanie KSE","Saldo wymiany","Generacja wiatrowa","Generacja nJWCD*","DYSP_JWCDc pracujacych","rezerwa","rezerwa/plan [%]","ts"
0,0,0,0,0,0,0,"2017-06-30 01:00"
35,39,21,22,13,130,0.8,"2017-06-30 02:00"
109,46,36,38,23,252,1.6,"2017-06-30 03:00"
58,93,49,37,23,259,1.7,"2017-06-30 04:00"
42,34,37,28,17,158,1,"2017-06-30 05:00"
39,45,33,25,16,159,1,"2017-06-30 06:00"
208,219,95,59,36,617,3.5,"2017-06-30 07:00"
112,111,85,53,87,448,2.2,"2017-06-30 08:00"
151,88,114,71,280,704,3.3,"2017-06-30 09:00"
76,157,82,62,243,618,2.9,"2017-06-30 10:00"
65,65,50,52,160,392,1.8,"2017-06-30 11:00"
64,91,39,51,156,401,1.8,"2017-06-30 12:00"
68,137,41,54,165,465,2.1,"2017-06-30 13:00"
61,121,14,48,137,381,1.7,"2017-06-30 14:00"
59,121,14,48,137,380,1.7,"2017-06-30 15:00"
130,154,18,60,174,536,2.5,"2017-06-30 16:00"
152,255,20,69,197,694,3.3,"2017-06-30 17:00"
341,283,22,76,219,940,4.5,"2017-06-30 18:00"
157,271,67,73,210,777,3.8,"2017-06-30 19:00"
367,308,64,83,238,1059,5.1,"2017-06-30 20:00"
159,246,51,66,260,781,3.8,"2017-06-30 21:00"
44,145,30,36,62,317,1.6,"2017-06-30 22:00"
16,56,14,14,9,110,0.6,"2017-06-30 23:00"
21,81,21,22,13,157,0.9,"2017-06-30 24:00"
