"Zapotrzebowanie KSE","Saldo wymiany","Generacja wiatrowa","Generacja nJWCD*","DYSP_JWCDc pracujacych","rezerwa","rezerwa/plan [%]","ts"
19,19,11,12,7,69,0.4,"2017-06-30 01:00"
21,27,14,14,9,84,0.5,"2017-06-30 02:00"
90,52,31,32,20,224,1.4,"2017-06-30 03:00"
124,100,59,45,27,355,2.3,"2017-06-30 04:00"
32,44,31,24,15,146,1,"2017-06-30 05:00"
35,45,32,24,15,150,1,"2017-06-30 06:00"
269,231,99,62,38,699,3.9,"2017-06-30 07:00"
92,90,78,48,80,388,1.9,"2017-06-30 08:00"
138,113,112,69,275,707,3.4,"2017-06-30 09:00"
142,157,94,70,279,742,3.4,"2017-06-30 10:00"
55,81,47,50,153,385,1.8,"2017-06-30 11:00"
55,91,37,48,149,379,1.7,"2017-06-30 12:00"
59,115,40,52,159,425,1.9,"2017-06-30 13:00"
58,189,15,50,146,457,2.1,"2017-06-30 14:00"
50,101,13,45,131,340,1.6,"2017-06-30 15:00"
126,234,18,62,181,621,2.9,"2017-06-30 16:00"
216,251,20,68,197,752,3.5,"2017-06-30 17:00"
211,251,20,68,196,744,3.6,"2017-06-30 18:00"
221,265,66,72,207,831,4,"2017-06-30 19:00"
232,279,58,75,219,863,4.2,"2017-06-30 20:00"
151,242,50,66,260,769,3.7,"2017-06-30 21:00"
39,142,29,36,61,306,1.5,"2017-06-30 22:00"
9,38,10,10,6,73,0.4,"2017-06-30 23:00"
15,63,16,17,10,121,0.7,"2017-06-30 24:00"
