"Zapotrzebowanie KSE","Saldo wymiany","Generacja wiatrowa","Generacja nJWCD*","DYSP_JWCDc pracujacych","rezerwa","rezerwa/plan [%]","ts"
0,0,0,0,0,0,0,"2017-06-30 01:00"
36,35,19,23,16,129,0.8,"2017-06-30 02:00"
97,40,31,39,26,234,1.5,"2017-06-30 03:00"
60,84,44,40,27,254,1.6,"2017-06-30 04:00"
44,31,33,30,20,158,1,"2017-06-30 05:00"
19,23,17,12,10,81,0.5,"2017-06-30 06:00"
180,185,80,46,40,531,3,"2017-06-30 07:00"
123,104,80,60,68,435,2.2,"2017-06-30 08:00"
196,94,122,91,289,792,3.8,"2017-06-30 09:00"
146,181,95,86,272,779,3.6,"2017-06-30 10:00"
68,68,53,50,180,419,1.9,"2017-06-30 11:00"
57,82,35,42,148,364,1.6,"2017-06-30 12:00"
62,124,38,45,159,428,1.9,"2017-06-30 13:00"
60,119,14,57,146,396,1.8,"2017-06-30 14:00"
58,120,14,57,147,396,1.8,"2017-06-30 15:00"
127,157,19,75,193,571,2.6,"2017-06-30 16:00"
156,249,20,61,209,696,3.3,"2017-06-30 17:00"
343,283,23,92,238,979,4.7,"2017-06-30 18:00"
161,265,66,65,222,779,3.8,"2017-06-30 19:00"
368,308,64,100,259,1099,5.3,"2017-06-30 20:00"
172,241,50,59,248,771,3.8,"2017-06-30 21:00"
43,141,29,35,58,307,1.5,"2017-06-30 22:00"
6,21,5,5,5,42,0.2,"2017-06-30 23:00"
6,24,6,6,5,47,0.3,"2017-06-30 24:00"
